FP Pilot GPS | Danielle Cosme
…
##  [1] "FP029" "FP007" "FP009" "FP022" "FP004" "FP011" "FP021" "FP013"
##  [9] "FP008" "FP018" "FP003" "FP025" "FP035" "FP001" "FP031" "FP006"
## [17] "FP030" "FP028" "FP026" "FP019" "FP024" "FP032" "FP023" "FP005"
## [25] "FP015" "FP010" "FP034" "FP014" "FP016" "FP020" "FP027" "FP002"
## [33] "FP012" "FP017"

# print number of surveys per participant
surveys_long_sub %>%
  group_by(SID, survey_name) %>%
  summarize(n = n()) %>%
  spread(survey_name, n)

## Warning: Grouping rowwise data frame strips rowwise nature

## # A tibble: 34 x 9
## # Groups:   SID [34]
##    SID   CheckIn_Fall CheckIn_Spring CheckIn_Summer CheckIn_Winter
##    <chr>        <int>          <int>          <int>          <int>
##  1 FP001           49             45             18             45
##  2 FP002           49             45             NA             45
##  3 FP003           49             45             NA             45
##  4 FP004           49             45             18             45
##  5 FP005           49             45             NA             45
##  6 FP006           49             45             18             45
##  7 FP007           49             45             NA             45
##  8 FP008           49             45             18             45
##  9 FP009           49             45             NA             45
## 10 FP010           98             45             18             45
## # ... with 24 more rows, and 4 more variables: `Freshman Project T1
## #   Survey` <int>, `Freshman Project T2 Survey` <int>, `Freshman Project
## #   T3 Survey` <int>, `Freshman Project T4 Survey` <int>
…
merged %>%
  filter(item %in% c("importance", "commitment", "complete")) %>%
  group_by(item, survey, PPA) %>%
  summarize(mean = mean(as.numeric(value), na.rm = TRUE)) %>%
  spread(survey, mean)

## # A tibble: 51 x 4
## # Groups:   item [3]
##    item       PPA                     `check in` `follow up`
##    <chr>      <chr>                        <dbl>       <dbl>
##  1 commitment Academics                     90.6        86.1
##  2 commitment Aesthetics                    84.3        73.3
##  3 commitment Community service            100          81  
##  4 commitment Exercise & athletics          80.4        76.7
##  5 commitment Family                        80.2        78.1
##  6 commitment Health & safety               86.2        76  
##  7 commitment Hobbies & entertainment       75.9        74.5
##  8 commitment Maintaining friendships       85.4        66  
##  9 commitment "New experiences "            80.7        76.4
## 10 commitment Physical appearance           83.5        76.5
## # ... with 41 more rows

# social personal project areas only
merged %>%
  filter(item %in% c("importance", "commitment", "complete") & social == 1) %>%
  group_by(item, survey, PPA, term) %>%
  summarize(mean = mean(as.numeric(value), na.rm = TRUE)) %>%
  spread(survey, mean) %>%
  mutate(change = `follow up` - `check in`)

## # A tibble: 33 x 6
## # Groups:   item, PPA [12]
##    item       PPA                     term   `check in` `follow up` change
##    <chr>      <chr>                   <chr>       <dbl>       <dbl>  <dbl>
##  1 commitment Maintaining friendships Fall         83.5        57.5 -26   
##  2 commitment Maintaining friendships Spring       87          45   -42   
##  3 commitment Maintaining friendships Winter       86.5        85    -1.5 
##  4 commitment Romantic relationships  Fall         79          70    -9   
##  5 commitment Romantic relationships  Spring       99.2       100     0.75
##  6 commitment Romantic relationships  Winter       99          91.6  -7.4 
##  7 commitment Social awareness        Spring       57          70    13   
##  8 commitment Social awareness        Winter       75          50   -25   
##  9 commitment Social exploration      Fall         75.2        63.2 -12   
## 10 commitment Social exploration      Spring       84          59.5 -24.5 
## # ... with 23 more rows
…
